Query1: KENNEDY ADMINISTRATION PRESSURE ON NGO DINH DIEM TO STOP SUPPRESSING THE BUDDHISTS .
['kennedi', 'administr', 'pressur', 'dine', 'diem', 'stop', 'suppress', 'buddhist']
(('268.txt', '323.txt', '304.txt', '308.txt', '364.txt', '22.txt', '419.txt', '171.txt', '31.txt','257.txt'), (0.09987692723953949, 0.08004349849892425, 0.07749852348618705, 0.07568196348028412, 0.06853945595728755, 0.058770719648326086, 0.0549520597987833, 0.047780415321733126, 0.046917589911174805, 0.04113385743197346))


Query2: EFFORTS OF AMBASSADOR HENRY CABOT LODGE TO GET VIET NAM'S PRESIDENT DIEM TO CHANGE HIS POLICIES OF POLITICAL REPRESSION .
['effort', 'ambassador', 'henri', 'cabot', 'lodg', 'view', 'nam', 'presid', 'diem', 'chang', 'polici', 'polit', 'repress']
(('383.txt', '419.txt', '323.txt', '304.txt', '171.txt', '78.txt', '376.txt', '23.txt', '334.txt', '350.txt'), (0.11075468623315804, 0.09600627469268266, 0.08346235316685226, 0.08332795675809301, 0.058388498615858805, 0.056793741769070635, 0.053816177440671464, 0.04927449808011086, 0.04895944243458783, 0.04855278073525014))


Query3: NUMBER OF TROOPS THE UNITED STATES HAS STATIONED IN SOUTH VIET NAM AS COMPARED WITH THE NUMBER OF TROOPS IT HAS STATIONED IN WEST GERMANY .
['number', 'troop', 'united states', 'station', 'south', 'view', 'nam', 'compar', 'number', 'troop', 'station', 'west', 'germani']
(('29.txt', '419.txt', '154.txt', '36.txt', '198.txt', '364.txt', '423.txt', '299.txt', '40.txt', '102.txt'), (0.05123827027694271, 0.049454615396648985, 0.046295418432108555, 0.04215940442796201, 0.038415378809476035, 0.03588181421313669, 0.0355676378106988, 0.03480029820907625, 0.03293687035155348, 0.032572986200905166))


Query4: U.S . POLICY TOWARD THE NEW REGIME IN SOUTH VIET NAM WHICH OVERTHREW PRESIDENT DIEM .
['united states', 'polici', 'new', 'regim', 'south', 'view', 'nam', 'overthrew', 'presid', 'diem']
(('419.txt', '383.txt', '171.txt', '154.txt', '376.txt', '29.txt', '350.txt', '118.txt', '148.txt', '372.txt'), (0.13891823145126508, 0.07354096987112406, 0.06657313123023724, 0.062380519811858284, 0.06135988299062823, 0.0611684530400735, 0.05535868741455906, 0.04431948078159895, 0.039892785323387595, 0.038409283475922464))


Query5: PERSONS INVOLVED IN THE VIET NAM COUP .
['person', 'involv', 'view', 'nam', 'coup']
(('376.txt', '383.txt', '374.txt', '220.txt', '419.txt', '154.txt', '386.txt', '332.txt', '29.txt', '309.txt'), (0.06717389569409926, 0.064947549296253, 0.06462529907340073, 0.0567943658208377, 0.054995763584873465, 0.05148259402554274, 0.049753647452635046, 0.04775948123649591, 0.040138380178125224, 0.040112926489508864))


Query6: CEREMONIAL SUICIDES COMMITTED BY SOME BUDDHIST MONKS IN SOUTH VIET NAM AND WHAT THEY ARE SEEKING TO GAIN BY SUCH ACTS .
['ceremoni', 'suicid', 'commit', 'buddhist', 'monk', 'south', 'view', 'nam', 'seek', 'gain', 'act']
(('323.txt', '419.txt', '268.txt', '308.txt', '324.txt', '304.txt', '154.txt', '257.txt', '326.txt', '288.txt'), (0.10246571190716279, 0.08945513330629506, 0.0871433784718514, 0.07239674835726802, 0.062351072095122806, 0.062170710828918965, 0.059477491938300375, 0.05755113110240214, 0.05577549944846151, 0.05351065201555542))


Query7: REJECTION BY PRINCE NORODOM SIHANOUK, AN ASIAN NEUTRALIST LEADER, OF ALL FURTHER U.S . AID TO HIS NATION .
['reject', 'princ', 'boredom', 'sihanouk', 'asian', 'neutralist', 'leader', 'further', 'united states', 'aid', 'nation']
(('406.txt', '421.txt', '384.txt', '239.txt', '153.txt', '87.txt', '49.txt', '260.txt', '31.txt', '46.txt'), (0.14384781283217685, 0.11325814888731187, 0.07459460149722927, 0.07142504653405232, 0.06492741325978146, 0.06348425782398115, 0.05406540793759028, 0.05098736153768614, 0.04831509694796494, 0.04148798931921434))


Query8: U.N . TEAM SURVEY OF PUBLIC OPINION IN NORTH BORNEO AND SARAWAK ON THE QUESTION OF JOINING THE FEDERATION OF MALAYSIA .
['united nations', 'team', 'survey', 'public', 'opinion', 'north', 'borneo', 'sarawak', 'join', 'feder', 'malaysia']
(('358.txt', '269.txt', '339.txt', '61.txt', '242.txt', '303.txt', '155.txt', '80.txt', '207.txt', '156.txt'), (0.22393983045071875, 0.1802689073500334, 0.1531154480977797, 0.12925006672786732, 0.12148104601871271, 0.11991283847951903, 0.08010354366463335, 0.06186138176815531, 0.056450708825353114, 0.05420297117455726))


Query9: OPPOSITION OF INDONESIA TO THE NEWLY-CREATED MALAYSIA .
['opposit', 'indonesia', 'newly-cr', 'malaysia']
(('269.txt', '242.txt', '61.txt', '358.txt', '339.txt', '198.txt', '303.txt', '238.txt', '68.txt', '31.txt'), (0.16111263101025344, 0.14896034918524348, 0.1375778684374877, 0.13622147968901144, 0.12026693388483622, 0.08907312000318136, 0.06881075648862142, 0.061783383458426155, 0.059117768155508725, 0.05263958344338952))


Query10: GROWING CONTROVERSY IN SOUTHEAST ASIA OVER THE PROPOSED CREATION OF A FEDERATION OF MALAYSIA .
['grow', 'controversi', 'southeast', 'asia', 'propos', 'creation', 'feder', 'malaysia']
(('269.txt', '61.txt', '155.txt', '358.txt', '303.txt', '68.txt', '242.txt', '169.txt', '49.txt', '384.txt'), (0.1557460010626271, 0.11465821715238253, 0.09092999517014003, 0.08805124649134785, 0.07362323946623858, 0.06057354269499329, 0.05194769643424168, 0.04749428478527348, 0.047013459779821604, 0.04484759616634584))


Query11: ARRANGEMENTS FOR INDONESIA TO TAKE OVER THE ADMINISTRATION OF WEST IRIAN, WHICH HAS BEEN UNDER UNITED NATIONS ADMINISTRATION .
['arrang', 'indonesia', 'administr', 'west', 'irian', 'united nations', 'administr']
(('198.txt', '46.txt', '195.txt', '269.txt', '423.txt', '22.txt', '242.txt', '61.txt', '41.txt', '238.txt'), (0.150567415527582, 0.05548727161699413, 0.055030209876302964, 0.048139119687216125, 0.04248257466704611, 0.03846423135763362, 0.036257447753887825, 0.03592589968908088, 0.0349702063664493, 0.034930668036249224))


Query12: CONTROVERSY BETWEEN INDONESIA AND MALAYA ON THE PROPOSED FEDERATION OF MALAYSIA, WHICH WOULD UNITE FIVE TERRITORIES .
['controversi', 'indonesia', 'malaya', 'propos', 'feder', 'malaysia', 'unit', 'territori']
(('358.txt', '269.txt', '242.txt', '303.txt', '61.txt', '198.txt', '31.txt', '46.txt', '339.txt', '155.txt'), (0.1812861199701235, 0.17780735859105062, 0.14462846964080264, 0.13436819811071132, 0.12722583542853702, 0.10740718932507404, 0.08429573377593709, 0.0773211625711944, 0.07364815523672222, 0.06917556075065201))


Query13: PRECARIOUS TRUCE IN LAOS WHICH WAS BROUGHT UP BY BRITAIN BEFORE THE 14 NATIONS THAT AGREED ON THE TRUCE IN GENEVA LAST YEAR .
['precari', 'truce', 'lao', 'britain', '14', 'nation', 'agre', 'truce', 'geneva']
(('151.txt', '170.txt', '239.txt', '87.txt', '287.txt', '80.txt', '185.txt', '421.txt', '342.txt', '228.txt'), (0.11014549035229543, 0.09230291941703071, 0.08939264042168885, 0.08429375377687773, 0.07432756501197463, 0.06577493284601592, 0.06566248508010102, 0.058680798550073784, 0.04678083046136254, 0.046120936718815654))


Query14: MAPHILINDO, A WORD FORMED FROM PARTS OF THE NAMES OF THREE COUNTRIES, WHICH IS BEING USED IN DISCUSSIONS OF INTERNATIONAL RELATIONS IN THE FAR EAST .
['maphilindo', 'form', 'part', 'name', 'countri', 'discuss', 'intern', 'relat', 'east']
(('269.txt', '310.txt', '109.txt', '74.txt', '421.txt', '239.txt', '111.txt', '372.txt', '279.txt', '63.txt'), (0.0738444666924035, 0.0516984873982795, 0.046405548032360674, 0.042078642763423435, 0.040724114763028216, 0.03862648115347973, 0.038457202274207285, 0.035998463116986235, 0.0347600226281793, 0.03257356943709816))


Query15: ELECTION OF PARK CHUNG HEE AS PRESIDENT OF SOUTH KOREA .
['elect', 'park', 'chung', 'hee', 'presid', 'south', 'korea']
(('118.txt', '164.txt', '422.txt', '128.txt', '94.txt', '419.txt', '354.txt', '372.txt', '166.txt', '154.txt'), (0.25703855426227723, 0.20657598677720757, 0.19173803535497952, 0.1868173411630136, 0.15612979400324523, 0.052191482109926794, 0.04740843404177307, 0.04590787447445731, 0.03373282257277704, 0.031048248559135606))


Query16: EFFORTS OF THE THREE-NATION INTERNATIONAL CONTROL COMMISSION FOR INDO-CHINA TO TRY TO STOP THE FIGHTING THAT HAS FLARED IN LAOS .
['effort', 'three-nat', 'intern', 'control', 'commiss', 'into-china', 'tri', 'stop', 'fight', 'flare', 'lao']
(('239.txt', '87.txt', '421.txt', '23.txt', '169.txt', '153.txt', '213.txt', '362.txt', '60.txt', '185.txt'), (0.14110038071717684, 0.06954104338425306, 0.06844644209720264, 0.06202113949116686, 0.061586890415405535, 0.05413345250817076, 0.050376065049869294, 0.04833976870747987, 0.04594550614142576, 0.0399277868316936))


Query17: WITHDRAWAL BY THE SULTANATE OF BRUNEI FROM THE PROPOSED FEDERATION OF MALAYSIA .
['withdraw', 'sultan', 'brunei', 'propos', 'feder', 'malaysia']
(('303.txt', '358.txt', '269.txt', '61.txt', '242.txt', '155.txt', '36.txt', '68.txt', '156.txt', '167.txt'), (0.2087535248888362, 0.15106349480461698, 0.13232855639299457, 0.1279046390190354, 0.10173531007674669, 0.09384588203080607, 0.08816396408643046, 0.0847812753359193, 0.07516174910483238, 0.06314227184193996))


Query18: RUSSIA'S REFUSAL TO CONTRIBUTE FUNDS FOR THE SUPPORT OF UNITED NATIONS PEACEKEEPING FORCES .
['russia', 'refus', 'contribut', 'fund', 'support', 'united nations', 'peacekeep', 'forc']
(('423.txt', '356.txt', '247.txt', '80.txt', '50.txt', '420.txt', '376.txt', '40.txt', '172.txt', '111.txt'), (0.043382542267603276, 0.03409737046082552, 0.03305420541865693, 0.03227237547056379, 0.031094262758083614, 0.030761203333901657, 0.02906879212950516, 0.028481060003385992, 0.028237978205512874, 0.0277284753216123))


Query19: AGREEMENT BY THE UNITED ARAB REPUBLIC AND SAUDI ARABIA TO WITHDRAW THEIR FORCES FROM YEMEN, WHICH INVOLVES OBSERVERS FROM THE UNITED NATIONS EXPEDITIONARY FORCE BEING SENT TO YEMEN .
['agreement', 'unit', 'arab', 'republ', 'saudi', 'arabia', 'withdraw', 'forc', 'yemen', 'involv', 'observ', 'united nations', 'expeditionari', 'forc', 'send', 'yemen']
(('195.txt', '10.txt', '36.txt', '344.txt', '267.txt', '115.txt', '159.txt', '100.txt', '226.txt', '99.txt'), (0.11835734906295596, 0.11031921223438547, 0.07960816669420495, 0.0726678186633369, 0.07212381608788956, 0.06466354714233506, 0.06296686826064078, 0.05978962345342741, 0.0571368571419631, 0.05398676412315415))


Query20: THE UNITED STATES HAS WARNED IT WOULD LIMIT ITS UNITED NATIONS PAYMENTS TO THE LEVEL OF ITS REGULAR ASSESSMENT IF NATIONS NOW IN ARREARS FAIL TO PAY UP . WHAT ISSUES ARE INVOLVED IN THESE NATIONS' BEING IN ARREARS .
['united states', 'warn', 'limit', 'united nations', 'payment', 'level', 'regular', 'assess', 'nation', 'arrear', 'fail', 'pay', 'issu', 'involv', 'nation', 'arrear']
(('423.txt', '151.txt', '351.txt', '209.txt', '52.txt', '197.txt', '363.txt', '386.txt', '414.txt', '50.txt'), (0.05247889019016159, 0.04235307134806093, 0.040920526803695, 0.03394842148090847, 0.029644602113947226, 0.029261194934563722, 0.02912917485223874, 0.028929684231926683, 0.028315267928047547, 0.02827882695830699))


Query21: SECURITY COUNCIL CONSIDERATION OF THE COMPLAINTS BY 32 AFRICAN NATIONS AGAINST SOUTH AFRICA AND PORTUGAL .
['secur', 'council', 'consider', 'complaint', '32', 'african', 'nation', 'south', 'africa', 'portug']
(('372.txt', '342.txt', '318.txt', '241.txt', '305.txt', '400.txt', '107.txt', '338.txt', '354.txt', '80.txt'), (0.10897970923455615, 0.08413604551940837, 0.07531109041924386, 0.062392788504960744, 0.05182138290751278, 0.051148391701462875, 0.050605873708669286, 0.04587089100081406, 0.04562973298312502, 0.04046862583105016))


Query22: ALTERNATIVES WHICH HAVE BEEN OFFERED IF U.N . FORCES ARE WITHDRAWN FROM THE CONGO .
['altern', 'offer', 'united nations', 'forc', 'withdrawn', 'congo']
(('50.txt', '111.txt', '347.txt', '41.txt', '356.txt', '11.txt', '341.txt', '364.txt', '285.txt', '423.txt'), (0.11774249474621559, 0.08539751943476784, 0.08074399997068846, 0.07322581061557915, 0.07304049454520797, 0.06658051553168343, 0.0629405553963994, 0.055355315879029296, 0.04961608541465915, 0.04869467109973145))


Query23: WHAT COUNTRIES HAVE NEWLY JOINED THE UNITED NATIONS .
['countri', 'newli', 'join', 'united nations']
(('423.txt', '314.txt', '386.txt', '40.txt', '80.txt', '153.txt', '84.txt', '419.txt', '258.txt', '269.txt'), (0.13186481794701674, 0.06324635149504887, 0.0419740500402228, 0.03821135174329288, 0.03638725774365795, 0.036273032411142436, 0.03234598875754789, 0.03197545183643334, 0.03168016605971448, 0.031494889349140166))


Query24: UNITED NATIONS EFFORTS TO GET PORTUGAL TO FREE ITS AFRICAN COLONIES .
['united nations', 'effort', 'portug', 'free', 'african', 'coloni']
(('318.txt', '109.txt', '80.txt', '167.txt', '338.txt', '40.txt', '78.txt', '198.txt', '423.txt', '372.txt'), (0.11742954277934917, 0.08332379102263106, 0.073318269962622, 0.05899755866230598, 0.054826201259832535, 0.05256492651254361, 0.05041618358016165, 0.04980523786888602, 0.04919117917792559, 0.04451572520601115))


Query25: U.N . CONSIDERATION OF THE CONFLICT BETWEEN ISRAEL AND ITS ARAB NEIGHBORS .
['united nations', 'consider', 'conflict', 'israel', 'arab', 'neighbor']
(('342.txt', '210.txt', '246.txt', '341.txt', '386.txt', '36.txt', '344.txt', '423.txt', '237.txt', '278.txt'), (0.0864075879910124, 0.07286175148083536, 0.06170325315855977, 0.06170191017683328, 0.056490645112263455, 0.05579704726929666, 0.05578695220632194, 0.04869467109973145, 0.04869373074123065, 0.046435899228322614))


Query26: EFFECT IN THE U.N . OF A MAJORITY COMPRISED OF UNDERDEVELOPED NATIONS .
['effect', 'united nations', 'major', 'compris', 'underdevelop', 'nation']
(('102.txt', '423.txt', '218.txt', '209.txt', '50.txt', '11.txt', '5.txt', '228.txt', '41.txt', '356.txt'), (0.06700005255860128, 0.06381389093320561, 0.040796489706258834, 0.03737633400458759, 0.03530710881278819, 0.033554094559378626, 0.033368074857799114, 0.033176462488939275, 0.03298365233894685, 0.032900179028285514))


Query27: BRITISH PROPOSAL FOR NEW HIGH LEVEL NEGOTIATIONS WITH RUSSIA OR A FOUR-POWER SUMMIT MEETING .
['british', 'propos', 'new', 'high', 'level', 'negoti', 'russia', 'four-pow', 'summit', 'meet']
(('111.txt', '151.txt', '184.txt', '63.txt', '341.txt', '420.txt', '114.txt', '46.txt', '207.txt', '322.txt'), (0.10850357133771142, 0.10835835833174466, 0.06102543431483824, 0.056771148365850586, 0.05469719431449911, 0.05414464406039163, 0.046340934421496796, 0.04329550214015629, 0.04159867774299758, 0.03766418458734255))


Query28: STRENGTHS IN POPULAR VOTES OF THE VARIOUS POLITICAL PARTIES IN THE RECENT ITALIAN ELECTIONS .
['strength', 'popular', 'vote', 'variou', 'polit', 'parti', 'italian', 'elect']
(('390.txt', '150.txt', '325.txt', '73.txt', '225.txt', '387.txt', '423.txt', '285.txt', '134.txt', '109.txt'), (0.07915763314687603, 0.0779944331811104, 0.07580997631321347, 0.06620144471743605, 0.05733915325393604, 0.046449901354251026, 0.04608350231290421, 0.04297646846048779, 0.0405771961717922, 0.03943673966786088))


Query29: TALKS BETWEEN SECRETARY OF STATE RUSK AND PRESIDENT TITO OF YUGOSLAVIA CONCERNING MOST-FAVORED-NATION TREATMENT FOR YUGOSLAV EXPORTS TO THE UNITED STATES .
['talk', 'secretari', 'state', 'rusk', 'presid', 'tyto', 'yugoslavia', 'concern', 'most-favored-n', 'treatment', 'yugoslav', 'export', 'united states']
(('192.txt', '184.txt', '341.txt', '329.txt', '158.txt', '105.txt', '53.txt', '364.txt', '423.txt', '291.txt'), (0.14808855935135348, 0.1065107129205311, 0.08416155144903724, 0.07297253894307834, 0.06351427476981106, 0.05307876902886366, 0.05107874229840539, 0.050624951841144364, 0.0445965054027134, 0.04297647386574096))


Query30: PARLIAMENTARY VOTE OF CONFIDENCE WON BY PRIME MINISTER MACMILLAN ON THE PROFUMO SCANDAL AND WHAT EFFECT THE PROFUMO SCANDAL MAY HAVE ON LABOR'S CHANCES IN THE NEXT BRITISH ELECTIONS .
['parliamentari', 'vote', 'confid', 'win', 'prime', 'minist', 'mammillar', 'profus', 'scandal', 'effect', 'profus', 'scandal', 'labor', 'chanc', 'next', 'british', 'elect']
(('58.txt', '369.txt', '400.txt', '325.txt', '387.txt', '390.txt', '207.txt', '225.txt', '332.txt', '150.txt'), (0.11094598392018903, 0.05689216632169501, 0.054664492287731514, 0.05079615900061948, 0.04864746442632917, 0.0449711744087549, 0.042984341532334276, 0.04010823658839678, 0.03456176703333824, 0.03316300484164961))


Query31: LEADERS WHICH FIGURE IN DISCUSSIONS OF THE FUTURE OF THE WEST GERMAN CHANCELLORSHIP .
['leader', 'figur', 'discuss', 'futur', 'west', 'german', 'chancellorship']
(('81.txt', '102.txt', '74.txt', '111.txt', '205.txt', '239.txt', '56.txt', '26.txt', '39.txt', '291.txt'), (0.05771294109086868, 0.052366363803985995, 0.04845644563305102, 0.043606368572940035, 0.03967461448984386, 0.036718961907775155, 0.0356857472441821, 0.03464020665232838, 0.03302258640394644, 0.032656085031563586))


Query32: TALKS HELD IN EAST GERMANY BY PREMIER KHRUSHCHEV WITH THE LEADERS OF FOUR EAST EUROPEAN SATELLITE COUNTRIES .
['talk', 'east', 'germani', 'premier', 'khrushchev', 'leader', 'east', 'european', 'satellit', 'countri']
(('102.txt', '24.txt', '109.txt', '341.txt', '74.txt', '111.txt', '114.txt', '364.txt', '378.txt', '2.txt'), (0.08272459940917334, 0.057521893083510856, 0.0513634812028167, 0.047329542201915785, 0.046321550321066614, 0.04520560963009969, 0.04360125128416116, 0.0420980231830398, 0.04156063804351014, 0.04042915019616247))


Query33: GOVERNMENT CRISIS WHICH WAS PRODUCED BY THE CONTROVERSY INVOLVING THE WALLOONS AND THE FLEMINGS .
['govern', 'crisi', 'produc', 'controversi', 'involv', 'balloon', 'fleme']
(('251.txt', '323.txt', '22.txt', '90.txt', '187.txt', '37.txt', '130.txt', '364.txt', '286.txt', '330.txt'), (0.06350856914693005, 0.05605989064028091, 0.04487251729768747, 0.0430411916458489, 0.039669882399095725, 0.039233065289636014, 0.03862963641486486, 0.037548202756583264, 0.035004110967227886, 0.034458364553708445))


Query34: DIFFICULTIES IRELAND'S MINORITY GOVERNMENT IS FACING BECAUSE OF THE GROWING UNREST OVER ITS AGRICULTURAL POLICIES .
['difficulti', 'ireland', 'minor', 'govern', 'face', 'grow', 'unrest', 'agricultur', 'polici']
(('328.txt', '401.txt', '76.txt', '114.txt', '423.txt', '74.txt', '202.txt', '151.txt', '171.txt', '291.txt'), (0.04239025133534327, 0.041315478624697206, 0.04117004484601622, 0.04004540612068447, 0.03858615483188759, 0.038450898054027016, 0.037975324033053204, 0.03641067154999655, 0.0351180381557615, 0.03210763014098718))


Query35: TALKS BETWEEN PORTUGAL AND THE U.S . ON THE TROUBLES PORTUGAL HAS BEEN HAVING WITH ITS AFRICAN POSSESSIONS .
['talk', 'portug', 'united states', 'troubl', 'portug', 'african', 'possess']
(('318.txt', '338.txt', '80.txt', '218.txt', '167.txt', '109.txt', '132.txt', '236.txt', '310.txt', '190.txt'), (0.0995530674015289, 0.05755011778848634, 0.057496970182233036, 0.057370171134630166, 0.05304165371522767, 0.04535263326673154, 0.04417755017738975, 0.041029561999226964, 0.03966373728034856, 0.03710949642954866))


Query36: SHAKE-UPS IN THE CZECH REGIME HEADED BY PRESIDENT ANTONIN NOVOTNY .
['shake-up', 'czech', 'regim', 'head', 'presid', 'antonio', 'noviti']
(('218.txt', '236.txt', '229.txt', '393.txt', '200.txt', '318.txt', '219.txt', '213.txt', '388.txt', '23.txt'), (0.07427395289576598, 0.04829135328213992, 0.04381298209641094, 0.04171547655917281, 0.04059009782375704, 0.03706313219737861, 0.03379364428875657, 0.030315166413653657, 0.03020534772314143, 0.02893446753951385))


Query37: WHEAT DEALS INVOLVING THE UNITED STATES, RUSSIA AND CANADA .
['wheat', 'deal', 'involv', 'united states', 'russia', 'canada']
(('378.txt', '401.txt', '423.txt', '111.txt', '158.txt', '341.txt', '239.txt', '245.txt', '102.txt', '33.txt'), (0.07205942036051752, 0.06719470155339859, 0.05728184246174749, 0.047695519994206195, 0.04124657504433209, 0.039640208169122504, 0.039445150371835346, 0.034036202273122027, 0.03364514034096325, 0.03244667665052781))


Query38: SPECULATION THAT THE NUMBER OF U.S . FORCES IN EUROPE MIGHT BE REDUCED .
['specul', 'number', 'united states', 'forc', 'europ', 'reduc']
(('151.txt', '190.txt', '161.txt', '306.txt', '254.txt', '216.txt', '402.txt', '174.txt', '81.txt', '145.txt'), (0.0969157288949614, 0.05644107212990332, 0.04856039015016013, 0.04278371790580869, 0.04191319709505205, 0.03968716315771332, 0.039486789914543005, 0.03561417805901376, 0.032704176001086854, 0.03263708348757921))


Query39: COALITION GOVERNMENT TO BE FORMED IN ITALY BY THE LEFT-WING SOCIALISTS, THE REPUBLICANS, SOCIAL DEMOCRATS, AND CHRISTIAN DEMOCRATS .
['coalit', 'govern', 'form', 'itali', 'left-w', 'socialist', 'republican', 'social', 'democrat', 'christian', 'democrat']
(('22.txt', '265.txt', '360.txt', '277.txt', '150.txt', '73.txt', '189.txt', '173.txt', '81.txt', '219.txt'), (0.1793829038760439, 0.11902887643754764, 0.11888469447333691, 0.10629970806199984, 0.09826011814211841, 0.09722520935616955, 0.09293772978880409, 0.0812225930721748, 0.0697385760555899, 0.053980636905216865))


Query40: RESULTS OF THE POLITICAL POLLS IN BRITAIN REGARDING WHICH PARTY IS IN THE LEAD, THE LABOR PARTY OR THE CONSERVATIVES .
['result', 'polit', 'poll', 'britain', 'regard', 'parti', 'lead', 'labor', 'parti', 'conserv']
(('207.txt', '325.txt', '150.txt', '20.txt', '58.txt', '182.txt', '148.txt', '390.txt', '134.txt', '369.txt'), (0.09004280041758264, 0.08852984844040744, 0.08424739414841712, 0.06876757066980863, 0.06166487518354355, 0.056133905234098794, 0.05248703175422406, 0.05210470026453634, 0.048359790179209924, 0.046999810212168994))


Query41: WHAT TWO PROPOSALS DID DE GAULLE REJECT THIS YEAR AFFECTING ALLIED RELATIONS .
['propos', 'de', 'gauz', 'reject', 'affect', 'alli', 'relat']
(('23.txt', '31.txt', '174.txt', '54.txt', '184.txt', '420.txt', '291.txt', '135.txt', '80.txt', '111.txt'), (0.06318625299583805, 0.062225911166133185, 0.05803003817144543, 0.05315849095767937, 0.040321717844419847, 0.037643040184601656, 0.03426636739788552, 0.03418288414256334, 0.03370719906396063, 0.032854725682374034))


Query42: PRESIDENT DE GAULLE'S BELIEF THAT FRANCE'S NUCLEAR FORCE SHOULD BE THE KEYSTONE OF A EUROPEAN DEFENSE SYSTEM .
['presid', 'de', 'gauz', 'belief', 'franc', 'nuclear', 'forc', 'keyston', 'european', 'defens', 'system']
(('174.txt', '254.txt', '151.txt', '135.txt', '53.txt', '228.txt', '351.txt', '124.txt', '80.txt', '419.txt'), (0.08717200144056401, 0.07423890631111532, 0.07103034824964431, 0.05986490022588818, 0.05713588542542965, 0.04304312495788727, 0.04257222047652599, 0.04050679058708046, 0.03937285211032504, 0.03929702997365832))


Query43: EFFORTS BY KHRUSHCHEV TO FIND A CLOSER RELATIONSHIP WITH YUGOSLAVIA .
['effort', 'khrushchev', 'closer', 'relationship', 'yugoslavia']
(('341.txt', '329.txt', '192.txt', '158.txt', '184.txt', '385.txt', '102.txt', '172.txt', '111.txt', '283.txt'), (0.159452985528355, 0.0634871850417333, 0.06045465533370823, 0.06016014617450621, 0.05812896907048611, 0.05049694276463222, 0.04849602071761958, 0.045596630393186795, 0.044773922247709805, 0.043136747512365285))


Query44: BONN'S OPPOSITION TO PROPOSALS FOR AN EAST-WEST NONAGGRESSION PACT .
['bonn', 'opposit', 'propos', 'east-west', 'nonaggress', 'pact']
(('295.txt', '102.txt', '306.txt', '82.txt', '315.txt', '364.txt', '148.txt', '291.txt', '133.txt', '346.txt'), (0.12745641539374988, 0.1036980961921523, 0.09087812000501519, 0.08182944163616931, 0.06936534687926253, 0.05164375723829028, 0.051520326423507984, 0.04951547088587427, 0.043236048424558596, 0.038112427997538195))


Query45: BACKGROUND OF THE NEW PRIME MINISTER OF GREAT BRITAIN .
['background', 'new', 'prime', 'minist', 'great', 'britain']
(('58.txt', '184.txt', '167.txt', '400.txt', '48.txt', '31.txt', '229.txt', '264.txt', '98.txt', '114.txt'), (0.08170211275080655, 0.04976297919922405, 0.04379228125894827, 0.04367602724464026, 0.042516864188181486, 0.03881674530007252, 0.032469101321644836, 0.029674113587548085, 0.028360917538357105, 0.02718363586421214))


Query46: PRESIDENT DE GAULLE'S POLICY ON BRITISH ENTRY INTO THE COMMON MARKET .
['presid', 'de', 'gauz', 'polici', 'british', 'entri', 'common', 'market']
(('151.txt', '23.txt', '20.txt', '291.txt', '202.txt', '80.txt', '53.txt', '149.txt', '133.txt', '269.txt'), (0.12345156340126551, 0.09840104569092524, 0.0828767703264069, 0.07942533711856747, 0.06952966264711072, 0.06811302965676166, 0.04440705525864364, 0.04113570261194045, 0.0403483487695965, 0.037200409272156565))


Query47: PROPOSALS FOR A UNIFIED EUROPE INDEPENDENT OF THE U.S .
['propos', 'unifi', 'europ', 'independ', 'united states']
(('93.txt', '423.txt', '322.txt', '254.txt', '151.txt', '420.txt', '174.txt', '111.txt', '154.txt', '350.txt'), (0.06607463495128897, 0.05795704630849706, 0.05235725554581425, 0.050546284537643, 0.04910252213342918, 0.04123588448435951, 0.039013377379854774, 0.035990548753761134, 0.03554081234902429, 0.03546657148609376))


Query48: WHAT IS THE "HOT LINE" PROPOSAL .
['hot', 'line', 'propos']
(('63.txt', '46.txt', '181.txt', '374.txt', '216.txt', '420.txt', '111.txt', '154.txt', '51.txt', '187.txt'), (0.06580755370576101, 0.06326134452914671, 0.05827272241922691, 0.05816210564574922, 0.05328819443016751, 0.053235297958019075, 0.046463598648061, 0.04588299144615133, 0.045489049808297384, 0.045485477254632145))


Query49: BACKGROUND OF THE NEW CHANCELLOR OF WEST GERMANY, LUDWIG ERHARD .
['background', 'new', 'chancellor', 'west', 'germani', 'ludwig', 'echard']
(('205.txt', '103.txt', '56.txt', '183.txt', '150.txt', '81.txt', '291.txt', '74.txt', '24.txt', '102.txt'), (0.13176202825823244, 0.11858974051614901, 0.09787260203287794, 0.09180451945882365, 0.08443697598562758, 0.07927668707874642, 0.07463049256996182, 0.07200170272864505, 0.06284711188411474, 0.05666213386043558))


Query50: MEETING OF MINISTERS IN PARIS IN APRIL OF THOSE COUNTRIES THAT ARE MEMBERS OF BOTH NATO AND SEATO .
['meet', 'minist', 'pari', 'april', 'countri', 'member', 'nato', 'seat']
(('419.txt', '265.txt', '402.txt', '157.txt', '364.txt', '207.txt', '276.txt', '151.txt', '162.txt', '184.txt'), (0.08256647749585608, 0.0690948550649671, 0.05144749456118826, 0.05085526819814684, 0.04850773224910666, 0.04848941952613779, 0.04800012938986359, 0.04733406694849464, 0.03583173191023539, 0.03454679749582085))


Query51: SUCCESSOR TO PREMIER KHRUSHCHEV .
['successor', 'premier', 'khrushchev']
(('2.txt', '190.txt', '276.txt', '111.txt', '114.txt', '385.txt', '172.txt', '183.txt', '15.txt', '187.txt'), (0.12646892470014906, 0.12103090987719381, 0.10284336507006522, 0.08806534695831963, 0.0849398858587645, 0.06519127278726991, 0.05886499671866247, 0.05143751259366371, 0.051250907252656554, 0.05068022794827837))


Query52: HINT BY PREMIER KHRUSHCHEV, WHO IS BOTH THE COMMUNIST PARTY SECRETARY AND PREMIER, THAT HE MAY RETIRE FROM ONE OF HIS TWO POSTS .
['hint', 'premier', 'khrushchev', 'communist', 'parti', 'secretari', 'premier', 'retir', 'post']
(('276.txt', '2.txt', '111.txt', '172.txt', '114.txt', '385.txt', '285.txt', '341.txt', '413.txt', '320.txt'), (0.06931046900114023, 0.06753959123616078, 0.06654110479415842, 0.06088376436874995, 0.05122028667436984, 0.049921438881507886, 0.04594245374426266, 0.045790225642838925, 0.04464358573698632, 0.04354098306323567))


Query53: PREMIER KHRUSHCHEV ONCE AGAIN PRESSING FOR A NONAGGRESSION PACT BETWEEN NATO AND THE WARSAW PACT NATIONS .
['premier', 'khrushchev', 'press', 'nonaggress', 'pact', 'nato', 'warsaw', 'pact', 'nation']
(('295.txt', '102.txt', '306.txt', '172.txt', '401.txt', '111.txt', '114.txt', '341.txt', '364.txt', '2.txt'), (0.10989579998394507, 0.09744072201315677, 0.07903179560851901, 0.05715489656997362, 0.04907419570164314, 0.04733200914658352, 0.045652184352144784, 0.0437298314308684, 0.042574075613151637, 0.042330872706541595))


Query54: COMMUNIST CHINA'S REACTION TO THE SOVIET UNION'S SIGNING OF THE NUCLEAR TEST BAN TREATY WITH THE WEST .
['communist', 'china', 'reaction', 'soviet', 'union', 'sign', 'nuclear', 'test', 'ban', 'treati', 'west']
(('363.txt', '295.txt', '8.txt', '423.txt', '315.txt', '306.txt', '82.txt', '205.txt', '362.txt', '420.txt'), (0.1358192809239868, 0.11614109920067225, 0.0970872323847063, 0.08539054589546233, 0.06895120559203166, 0.06681802683621862, 0.06019896898955981, 0.052946513031065214, 0.04912272134045946, 0.048974896383421465))


Query55: SUGGESTION MADE BY PRESIDENT KENNEDY FOR A NATO NUCLEAR MISSILE FLEET MANNED BY INTERNATIONAL CREWS .
['suggest', 'presid', 'kennedi', 'nato', 'nuclear', 'missil', 'fleet', 'man', 'intern', 'crew']
(('157.txt', '89.txt', '247.txt', '402.txt', '254.txt', '135.txt', '364.txt', '228.txt', '1.txt', '23.txt'), (0.11171053645845339, 0.11059598140304808, 0.10027284404452451, 0.09632450487795488, 0.08950744442171037, 0.07772016490904698, 0.07218942874162815, 0.07005152103156015, 0.06574835405474345, 0.06545171101931348))


Query56: SUGGESTION BY PRESIDENT KENNEDY THAT THE U.S . AND THE SOVIET UNION COOPERATE ON A MOON PROJECT .
['suggest', 'presid', 'kennedi', 'united states', 'soviet', 'union', 'cooper', 'moon', 'project']
(('423.txt', '145.txt', '23.txt', '216.txt', '22.txt', '161.txt', '111.txt', '364.txt', '421.txt', '276.txt'), (0.06815763684203091, 0.06061395880719125, 0.05919311824853342, 0.048068930323098155, 0.04798788612773057, 0.04495317683815092, 0.044238699495097254, 0.04396734302991549, 0.03970278941015815, 0.03594240232870923))


Query57: PROVISIONS OF THE TEST BAN TREATY .
['provis', 'test', 'ban', 'treati']
(('295.txt', '363.txt', '306.txt', '82.txt', '315.txt', '362.txt', '420.txt', '401.txt', '291.txt', '317.txt'), (0.13483548496763265, 0.11236222074670894, 0.11080516212381752, 0.10106509648099826, 0.08489312533271227, 0.08146081768374405, 0.07194277970510755, 0.07137553189162621, 0.060643819022014045, 0.05202385076181868))


Query58: OTHER NATIONS POSSESSING U.S . POLARIS MISSILES FOR THEIR NUCLEAR SUBMARINE FLEETS .
['nation', 'possess', 'united states', 'polari', 'missil', 'nuclear', 'submarin', 'fleet']
(('157.txt', '135.txt', '254.txt', '1.txt', '89.txt', '247.txt', '38.txt', '23.txt', '420.txt', '423.txt'), (0.14862207898200613, 0.14335622035612733, 0.1239905870321002, 0.12037576860545572, 0.116475578936942, 0.08347096947476744, 0.07968074846258574, 0.07386670258291528, 0.06928126369700813, 0.06874994194967453))


Query59: DISPUTE BETWEEN THE U.S . AND THE SOVIET UNION OVER INSPECTION SYSTEMS AT THE GENEVA DISARMAMENT CONFERENCES .
['disput', 'united states', 'soviet', 'union', 'inspect', 'system', 'geneva', 'disarma', 'confer']
(('421.txt', '419.txt', '151.txt', '423.txt', '350.txt', '184.txt', '80.txt', '306.txt', '46.txt', '79.txt'), (0.09339393869352283, 0.07521590729269978, 0.07047319495962359, 0.06815763684203091, 0.06088911402648778, 0.058624608694215985, 0.05389593927349849, 0.052866278018898386, 0.04938650413023578, 0.04919182186849606))


Query60: SIGNING OF THE TEST BAN TREATY .
['sign', 'test', 'ban', 'treati']
(('295.txt', '315.txt', '363.txt', '306.txt', '362.txt', '8.txt', '82.txt', '401.txt', '291.txt', '24.txt'), (0.13483548496763265, 0.11434263889571206, 0.11236222074670894, 0.11080516212381752, 0.08146081768374405, 0.08044724733897399, 0.07896670460245181, 0.07137553189162621, 0.060643819022014045, 0.05667071460445347))


Query61: NATIONS WORKING ON NUCLEAR WEAPONS DEVELOPMENT .
['nation', 'work', 'nuclear', 'weapon', 'develop']
(('135.txt', '1.txt', '82.txt', '423.txt', '363.txt', '174.txt', '254.txt', '295.txt', '151.txt', '386.txt'), (0.09250451978127724, 0.08762254318838356, 0.0859360982003404, 0.06936820984660153, 0.06328548549202258, 0.0629674177276173, 0.062491449290994136, 0.057838258426715305, 0.03997602718012162, 0.03828303598907971))


Query62: MOSCOW'S SUPPORT OF THE KURD'S STRUGGLE FOR AUTONOMY .
['moscow', 'support', 'kurd', 'struggl', 'autonomi']
(('233.txt', '114.txt', '115.txt', '190.txt', '172.txt', '318.txt', '111.txt', '398.txt', '310.txt', '145.txt'), (0.11459181260596375, 0.09231440904538495, 0.06813953710420369, 0.041993127756995215, 0.03817138010126227, 0.03785599940631339, 0.037482647072908944, 0.03656844093407306, 0.03399623518943731, 0.03318758882863817))


Query63: PRESIDENT NASSER'S RULING OUT ARAB UNION SO LONG AS THE PRESENT GOVERNING PARTY IN SYRIA REMAINS IN CONTROL .
['presid', 'nasser', 'rule', 'arab', 'union', 'present', 'govern', 'parti', 'syria', 'remain', 'control']
(('210.txt', '309.txt', '181.txt', '86.txt', '10.txt', '234.txt', '224.txt', '209.txt', '35.txt', '36.txt'), (0.10421790681559909, 0.0828089214380229, 0.07245881510974203, 0.06859160117321585, 0.06361157757602823, 0.05666664636351414, 0.056214691978336215, 0.05392910778397466, 0.05042382065694725, 0.049732814655195696))


Query64: PRIME MINISTER NEHRU'S COMING UNDER ATTACK LAST WEEK IN THE FIRST NO-CONFIDENCE MOTION ENTERTAINED BY THE INDIAN PARLIAMENT SINCE HIS GOVERNMENT TOOK OFFICE .
['prime', 'minist', 'nehru', 'come', 'attack', 'no-confid', 'motion', 'entertain', 'indian', 'parliament', 'govern', 'offic']
(('322.txt', '328.txt', '420.txt', '184.txt', '46.txt', '31.txt', '243.txt', '7.txt', '400.txt', '75.txt'), (0.16591678306470997, 0.12523836548658468, 0.12162542969158818, 0.09330690482832474, 0.08925078694818327, 0.06540119410932015, 0.053879548702958704, 0.052850812065219285, 0.051820529290794615, 0.05021904663303416))


Query65: BORDER DISPUTE BETWEEN ISRAEL AND SYRIA .
['border', 'disput', 'israel', 'syria']
(('342.txt', '10.txt', '194.txt', '246.txt', '31.txt', '46.txt', '35.txt', '309.txt', '237.txt', '386.txt'), (0.14156132277026406, 0.09003907185347, 0.08248704874283724, 0.07557074285412294, 0.06963063979446711, 0.06905348961919955, 0.06422915612282537, 0.06355329875032806, 0.059637396994245195, 0.0569320154258142))


Query66: AGREEMENT BETWEEN SYRIA AND IRAQ ON FULL ECONOMIC UNITY AND CLOSER ECONOMIC COOPERATION .
['agreement', 'syria', 'iraq', 'full', 'econom', 'uniti', 'closer', 'econom', 'cooper']
(('210.txt', '102.txt', '386.txt', '341.txt', '115.txt', '224.txt', '35.txt', '194.txt', '111.txt', '86.txt'), (0.11333178584733365, 0.07928299640186919, 0.07562096789485895, 0.07550265489219202, 0.0716534874458853, 0.07114164743121618, 0.0687162694710527, 0.06625823122059349, 0.056263717257979094, 0.05101862578783858))


Query67: CONTINUING CONFLICT BETWEEN INDIA AND PAKISTAN OVER KASHMIR .
['continu', 'conflict', 'india', 'pakistan', 'kashmir']
(('184.txt', '63.txt', '7.txt', '346.txt', '420.txt', '8.txt', '46.txt', '31.txt', '92.txt', '322.txt'), (0.2825536016979785, 0.2345156514505703, 0.17482397088033313, 0.142032102471613, 0.12258895831948005, 0.07519159084426166, 0.05207747925288747, 0.049517393149516545, 0.04480185446256133, 0.041056338497570136))


Query68: INDIAN FEARS OF ANOTHER COMMUNIST CHINESE INVASION .
['indian', 'fear', 'communist', 'chines', 'invas']
(('31.txt', '46.txt', '420.txt', '19.txt', '111.txt', '423.txt', '385.txt', '63.txt', '243.txt', '184.txt'), (0.09276558190591189, 0.08409547493778943, 0.06778188823811078, 0.0671313436539295, 0.06540166040203511, 0.0588217579593258, 0.05297008792664164, 0.042924522342889834, 0.04251479018294101, 0.04208099245685962))


Query69: THE BAATH (RENAISSANCE) PARTY FOUNDED BY MICHEL AFLAK, WHICH HASGAINED CONTROL OF SYRIA AND IRAQ AND AIMS TO UNITE ALL ARAB COUNTRIES .
['bath', 'renaiss', 'parti', 'found', 'michael', 'flak', 'bargain', 'control', 'syria', 'iraq', 'aim', 'unit', 'arab', 'countri']
(('210.txt', '115.txt', '386.txt', '70.txt', '309.txt', '86.txt', '35.txt', '224.txt', '194.txt', '79.txt'), (0.0870271300013515, 0.08551012215771586, 0.07596423856146867, 0.06620495496586407, 0.06104538074958949, 0.04937215461847243, 0.04469593988119197, 0.042696485844202645, 0.03971472698009555, 0.03959049810839077))


Query70: KING WHO SIGNED AWAY HIS POWER OF STATE GIVING FREE REIN TO HIS HALF-BROTHER FEISAL'S REFORM RULE .
['king', 'sign', 'away', 'power', 'state', 'give', 'free', 'rein', 'half-broth', 'final', 'reform', 'rule']
(('413.txt', '158.txt', '184.txt', '150.txt', '225.txt', '239.txt', '42.txt', '63.txt', '223.txt', '235.txt'), (0.05703305707929731, 0.05635473201541019, 0.04870394968249433, 0.042106343167721924, 0.04094118850755571, 0.04065224728310454, 0.040028025343000956, 0.03758667695125425, 0.035246231659515646, 0.03490105817962317))


Query71: SOMALIA IS INVOLVED IN BORDER DISPUTES WITH ITS NEIGHBORS WHAT MILITARY AID IS BEING SUPPLIED TO SOMALIA BY RUSSIA .
['somalia', 'involv', 'border', 'disput', 'neighbor', 'militari', 'aid', 'suppli', 'somalia', 'russia']
(('258.txt', '46.txt', '420.txt', '117.txt', '8.txt', '31.txt', '37.txt', '29.txt', '417.txt', '78.txt'), (0.075797507808523, 0.07298921897633645, 0.05539150608838694, 0.05225573291186682, 0.04950584139634147, 0.041272144357659066, 0.038730763324903376, 0.036577783676288944, 0.036245978303492084, 0.03590309631735927))


Query72: ECONOMIC STEPS TAKEN AGAINST SOUTH AFRICA AS A PROTEST AGAINST THAT NATION'S APARTHEID POLICY .
['econom', 'step', 'south', 'africa', 'protest', 'nation', 'apartheid', 'polici']
(('305.txt', '372.txt', '354.txt', '400.txt', '414.txt', '118.txt', '420.txt', '331.txt', '419.txt', '363.txt'), (0.10171287914550028, 0.08675944242029725, 0.08013054990756727, 0.057185640392128555, 0.05079844575039971, 0.04566241311456895, 0.04443046491183117, 0.03752636885715402, 0.031024868403202427, 0.02919270830822784))


Query73: INCREASING CRITICISM OF PREMIER BEN BELLA IN ALGERIA FROM OTHER LEADERS WHO HELPED BRING ABOUT ALGERIAN INDEPENDENCE .
['increas', 'critic', 'premier', 'ben', 'bell', 'algeria', 'leader', 'help', 'bring', 'algerian', 'independ']
(('209.txt', '43.txt', '37.txt', '320.txt', '351.txt', '60.txt', '168.txt', '111.txt', '114.txt', '341.txt'), (0.13993782351998782, 0.12359144790991476, 0.11722224225942846, 0.10138223949379621, 0.059781945432113265, 0.04739026595213755, 0.04511062713166072, 0.040068878306705094, 0.03918226895938391, 0.03598826345819767))


Query74: TAKE OVER AGAIN BY MOISE TSHOMBE OF THE KATANGA PROVINCE IN THE CONGO .
['mois', 'tromb', 'katana', 'provinc', 'congo']
(('285.txt', '347.txt', '67.txt', '50.txt', '41.txt', '356.txt', '142.txt', '63.txt', '419.txt', '197.txt'), (0.1852598017761563, 0.1531117680498334, 0.12266666693711259, 0.10514881849760369, 0.09873260346340731, 0.09517893244395892, 0.08581331365690814, 0.06745260069089752, 0.06677491716102554, 0.06326483855258197))


Query75: PREMIER CYRILLE ADOULA'S ORDERING THE ENTIRE SOVIET EMBASSY STAFF THROWN OUT OF HIS COUNTRY ON SPYING CHARGES .
['premier', 'cyrilla', 'doula', 'order', 'soviet', 'embassi', 'staff', 'throw', 'countri', 'spi', 'charg']
(('310.txt', '309.txt', '240.txt', '35.txt', '420.txt', '114.txt', '111.txt', '216.txt', '297.txt', '2.txt'), (0.11164439806775357, 0.06811988303032579, 0.06108368230829903, 0.046871850354956224, 0.04333015911696356, 0.03960486043240727, 0.03713597722596321, 0.03655289264369812, 0.03454400362102175, 0.03404941442727556))


Query76: CONFERENCE ON AFRICAN UNITY TO BE HELD IN ADDIS ABABA ON MAY 22 BY THE HEADS OF STATE OF 31 INDEPENDENT AFRICAN NATIONS .
['confer', 'african', 'uniti', 'addi', 'baba', '22', 'head', 'state', '31', 'independ', 'african', 'nation']
(('167.txt', '338.txt', '423.txt', '109.txt', '242.txt', '230.txt', '372.txt', '184.txt', '80.txt', '358.txt'), (0.058291187636005604, 0.05254209399826931, 0.05076486346027147, 0.04508807705970337, 0.045044801698242, 0.04456056439772578, 0.03988128464394199, 0.03746783141547174, 0.03649392993332716, 0.03636269763921082))


Query77: SPAIN'S RELAXATION OF CONTROLS OVER SOME OF ITS AFRICAN TERRITORIES .
['spain', 'relax', 'control', 'african', 'territori']
(('14.txt', '318.txt', '162.txt', '368.txt', '218.txt', '198.txt', '372.txt', '103.txt', '158.txt', '107.txt'), (0.07866966934785623, 0.0611522789796418, 0.05233432577210144, 0.0495983870221339, 0.04448083005823696, 0.04295149903334051, 0.04179344626765451, 0.03981707407415078, 0.03866555416281868, 0.037844494532386266))


Query78: FEDERATION OF EAST AFRICA TO BE FORMED BY KENYA, TANGANYIKA AND UGANDA WHEN KENYA GAINS ITS INDEPENDENCE ON DEC . 12 FROM BRITAIN .
['feder', 'east', 'africa', 'form', 'kenya', 'tanganyika', 'uganda', 'kenya', 'gain', 'independ', 'dec', '12', 'britain']
(('258.txt', '109.txt', '107.txt', '423.txt', '167.txt', '36.txt', '408.txt', '314.txt', '409.txt', '241.txt'), (0.16031468267114773, 0.1216492018935001, 0.1167104212121828, 0.08479393837015609, 0.07720507907898227, 0.06869158865632423, 0.062139313577201656, 0.05696327605686122, 0.05027302070106682, 0.048689568110954685))


Query79: ALGERIAN VOTE ON A NEW CONSTITUTION GIVING FULL POWERS TO PREMIER BEN BELLA'S POLITICAL PARTY .
['algerian', 'vote', 'new', 'constitut', 'give', 'full', 'power', 'premier', 'ben', 'bell', 'polit', 'parti']
(('209.txt', '320.txt', '37.txt', '158.txt', '43.txt', '423.txt', '400.txt', '210.txt', '139.txt', '111.txt'), (0.08279901367510932, 0.07679460939489713, 0.0741609629473034, 0.06538352814637961, 0.0643053947126699, 0.05528129867725945, 0.045720203563679666, 0.043965573178118014, 0.042747254011058666, 0.0421349273525181))


Query80: EFFECTS OF THE SINO-SOVIET DISPUTE ON THE NEW NATIONS OF AFRICA AND ASIA OR ON AREAS OF FERMENT IN LATIN AMERICA .
['effect', 'sing-soviet', 'disput', 'new', 'nation', 'africa', 'asia', 'area', 'ferment', 'latin', 'america']
(('68.txt', '63.txt', '184.txt', '258.txt', '132.txt', '215.txt', '275.txt', '295.txt', '171.txt', '269.txt'), (0.06915658799555091, 0.05089711707918031, 0.05038263810985549, 0.041367773584203404, 0.03958570745399112, 0.03808501376884654, 0.037541144247666934, 0.03548480460527649, 0.03510746739695624, 0.0318025191511429))


Query81: COMMUNIST CHINESE TRADE WITH THE SOVIET UNION, THE REST OF THE COMMUNIST WORLD, AND WITH THE NON-COMMUNIST WORLD .
['communist', 'chines', 'trade', 'soviet', 'union', 'rest', 'communist', 'world', 'non-communist', 'world']
(('111.txt', '423.txt', '378.txt', '80.txt', '162.txt', '187.txt', '385.txt', '161.txt', '341.txt', '243.txt'), (0.06131590923861091, 0.046208333609389404, 0.042140512177602715, 0.04102906870936497, 0.03982119184482691, 0.03739895986509288, 0.03718456320804839, 0.03440011863720127, 0.03135761735386049, 0.028784559345522785))


Query82: ALBANIAN BACKING OF COMMUNIST CHINA IN THE IDEOLOGICAL SPLIT WITH THE SOVIET UNION .
['albanian', 'back', 'communist', 'china', 'ideolog', 'split', 'soviet', 'union']
(('161.txt', '296.txt', '216.txt', '423.txt', '8.txt', '385.txt', '205.txt', '36.txt', '363.txt', '374.txt'), (0.10276857824115883, 0.06770113057880116, 0.06672526815827264, 0.05838253393224569, 0.056960077092536573, 0.04854815076242241, 0.047144515843135656, 0.041030770595962086, 0.0394970049533959, 0.03885246037112505))


Query83: RED CHINESE BLAMING OF ECONOMIC TROUBLES AND THE TREATY-BREAKING WITHDRAWAL OF RUSSIAN TECHNICAL ASSISTANCE FOR SERIOUS DELAYS IN ITS DEVELOPMENT PROGRAM .
['red', 'chines', 'blame', 'econom', 'troubl', 'treaty-break', 'withdraw', 'russian', 'technic', 'assist', 'seriou', 'delay', 'develop', 'program']
(('363.txt', '15.txt', '68.txt', '31.txt', '385.txt', '46.txt', '341.txt', '111.txt', '164.txt', '77.txt'), (0.13023116096096812, 0.07527526579548968, 0.058952578791727925, 0.051534671948999314, 0.05034191019827178, 0.04548661735458055, 0.045182328181691975, 0.04338634331323141, 0.04320702887102483, 0.04069213545810524))
